{
    "title":"votes",
    "desc":"Плагин позволяет создавать опросы. Поддерживаются любое количество опросов и ответов.",
    "icon" : "screenshot.png",
    "points" : "before_view",
    "active":1
}